<?xml version="1.0" encoding="utf-8"?>
<!-- Generator: Adobe Illustrator 16.0.0, SVG Export Plug-In . SVG Version: 6.00 Build 0)  -->
<!DOCTYPE svg PUBLIC "-//W3C//DTD SVG 1.1//EN" "http://www.w3.org/Graphics/SVG/1.1/DTD/svg11.dtd">
<svg version="1.1" id="Calque_1" xmlns="http://www.w3.org/2000/svg" xmlns:xlink="http://www.w3.org/1999/xlink" x="0px" y="0px"
	 width="15px" height="15px" viewBox="0 0 15 15" enable-background="new 0 0 15 15" xml:space="preserve">
<path fill="#9B170F" d="M13.314,10.439c-0.973-0.774-1.957-1.244-2.917-0.47l-0.572,0.468c-0.419,0.34-1.198,1.925-4.211-1.308
	c-3.013-3.229-1.221-3.731-0.8-4.068l0.575-0.468c0.955-0.776,0.595-1.752-0.094-2.756L4.88,1.228
	c-0.691-1.001-1.444-1.66-2.401-0.886L1.962,0.763C1.539,1.05,0.357,1.984,0.071,3.759c-0.344,2.129,0.744,4.567,3.237,7.242
	c2.491,2.678,4.929,4.022,7.238,3.998c1.922-0.019,3.08-0.98,3.443-1.329l0.519-0.421c0.954-0.774,0.361-1.563-0.611-2.339
	L13.314,10.439z"/>
</svg>
