<?xml version="1.0" encoding="utf-8"?>
<!-- Generator: Adobe Illustrator 16.0.0, SVG Export Plug-In . SVG Version: 6.00 Build 0)  -->
<!DOCTYPE svg PUBLIC "-//W3C//DTD SVG 1.1//EN" "http://www.w3.org/Graphics/SVG/1.1/DTD/svg11.dtd">
<svg version="1.1" id="Calque_1" xmlns="http://www.w3.org/2000/svg" xmlns:xlink="http://www.w3.org/1999/xlink" x="0px" y="0px"
	 width="15px" height="11px" viewBox="0 0 15 11" enable-background="new 0 0 15 11" xml:space="preserve">
<g>
	<g>
		<path fill="#FFFFFF" d="M7.5,7.643L5.646,6.02l-5.307,4.547c0.193,0.181,0.454,0.291,0.741,0.291h12.842
			c0.288,0,0.546-0.11,0.737-0.291L9.355,6.02L7.5,7.643z M14.662,0.433c-0.193-0.179-0.453-0.29-0.741-0.29H1.079
			c-0.286,0-0.545,0.111-0.738,0.292L7.5,6.57L14.662,0.433z M0,1.083v8.901l5.178-4.398L0,1.083z M9.822,5.586L15,9.984V1.082
			L9.822,5.586z"/>
	</g>
</g>
</svg>
